^C:\USERS\DTD811\DESKTOP\OPENGL_5\OPENGL_5\DEBUG\CAMERA.OBJ|C:\USERS\DTD811\DESKTOP\OPENGL_5\OPENGL_5\DEBUG\CCHECKER.OBJ|C:\USERS\DTD811\DESKTOP\OPENGL_5\OPENGL_5\DEBUG\CLINESEGMENT.OBJ|C:\USERS\DTD811\DESKTOP\OPENGL_5\OPENGL_5\DEBUG\COMMON.OBJ|C:\USERS\DTD811\DESKTOP\OPENGL_5\OPENGL_5\DEBUG\CQUAD.OBJ|C:\USERS\DTD811\DESKTOP\OPENGL_5\OPENGL_5\DEBUG\CQUADMT.OBJ|C:\USERS\DTD811\DESKTOP\OPENGL_5\OPENGL_5\DEBUG\CSHAPE.OBJ|C:\USERS\DTD811\DESKTOP\OPENGL_5\OPENGL_5\DEBUG\CSHAPEMT.OBJ|C:\USERS\DTD811\DESKTOP\OPENGL_5\OPENGL_5\DEBUG\CSOLIDCUBE.OBJ|C:\USERS\DTD811\DESKTOP\OPENGL_5\OPENGL_5\DEBUG\CSOLIDSPHERE.OBJ|C:\USERS\DTD811\DESKTOP\OPENGL_5\OPENGL_5\DEBUG\CSOLIDSPHEREMT.OBJ|C:\USERS\DTD811\DESKTOP\OPENGL_5\OPENGL_5\DEBUG\CWIRECUBE.OBJ|C:\USERS\DTD811\DESKTOP\OPENGL_5\OPENGL_5\DEBUG\CWIRESPHERE.OBJ|C:\USERS\DTD811\DESKTOP\OPENGL_5\OPENGL_5\DEBUG\EXAMPLE5.OBJ|C:\USERS\DTD811\DESKTOP\OPENGL_5\OPENGL_5\DEBUG\INITSHADER.OBJ|C:\USERS\DTD811\DESKTOP\OPENGL_5\OPENGL_5\DEBUG\PNG_LOADER.OBJ|C:\USERS\DTD811\DESKTOP\OPENGL_5\OPENGL_5\DEBUG\TIMER.OBJ|C:\USERS\DTD811\DESKTOP\OPENGL_5\OPENGL_5\LIBPNG\DEBUG\LIBPNG16.LIB|C:\USERS\DTD811\DESKTOP\OPENGL_5\OPENGL_5\LIBPNG\DEBUG\ZLIB.LIB|C:\USERS\DTD811\DESKTOP\OPENGL_5\OPENGL_5\SOIL\DEBUG\SOIL.LIB
C:\WINDOWS\SYSNATIVE\DGAGENT\DSA.PRO
C:\WINDOWS\GLOBALIZATION\SORTING\SORTDEFAULT.NLS
C:\PROGRAM FILES (X86)\WINDOWS KITS\8.0\LIB\WIN8\UM\X86\FREEGLUT.LIB
C:\PROGRAM FILES (X86)\WINDOWS KITS\8.0\LIB\WIN8\UM\X86\GLEW32.LIB
C:\PROGRAM FILES (X86)\WINDOWS KITS\8.0\LIB\WIN8\UM\X86\KERNEL32.LIB
C:\PROGRAM FILES (X86)\WINDOWS KITS\8.0\LIB\WIN8\UM\X86\USER32.LIB
C:\PROGRAM FILES (X86)\WINDOWS KITS\8.0\LIB\WIN8\UM\X86\GDI32.LIB
C:\PROGRAM FILES (X86)\WINDOWS KITS\8.0\LIB\WIN8\UM\X86\WINSPOOL.LIB
C:\PROGRAM FILES (X86)\WINDOWS KITS\8.0\LIB\WIN8\UM\X86\COMDLG32.LIB
C:\PROGRAM FILES (X86)\WINDOWS KITS\8.0\LIB\WIN8\UM\X86\ADVAPI32.LIB
C:\PROGRAM FILES (X86)\WINDOWS KITS\8.0\LIB\WIN8\UM\X86\SHELL32.LIB
C:\PROGRAM FILES (X86)\WINDOWS KITS\8.0\LIB\WIN8\UM\X86\OLE32.LIB
C:\PROGRAM FILES (X86)\WINDOWS KITS\8.0\LIB\WIN8\UM\X86\OLEAUT32.LIB
C:\PROGRAM FILES (X86)\WINDOWS KITS\8.0\LIB\WIN8\UM\X86\UUID.LIB
C:\PROGRAM FILES (X86)\WINDOWS KITS\8.0\LIB\WIN8\UM\X86\ODBC32.LIB
C:\PROGRAM FILES (X86)\WINDOWS KITS\8.0\LIB\WIN8\UM\X86\ODBCCP32.LIB
C:\USERS\DTD811\DESKTOP\OPENGL_5\OPENGL_5\DEBUG\CAMERA.OBJ
C:\USERS\DTD811\DESKTOP\OPENGL_5\OPENGL_5\DEBUG\CCHECKER.OBJ
C:\USERS\DTD811\DESKTOP\OPENGL_5\OPENGL_5\DEBUG\CLINESEGMENT.OBJ
C:\USERS\DTD811\DESKTOP\OPENGL_5\OPENGL_5\DEBUG\COMMON.OBJ
C:\USERS\DTD811\DESKTOP\OPENGL_5\OPENGL_5\DEBUG\CQUAD.OBJ
C:\USERS\DTD811\DESKTOP\OPENGL_5\OPENGL_5\DEBUG\CQUADMT.OBJ
C:\USERS\DTD811\DESKTOP\OPENGL_5\OPENGL_5\DEBUG\CSHAPE.OBJ
C:\USERS\DTD811\DESKTOP\OPENGL_5\OPENGL_5\DEBUG\CSHAPEMT.OBJ
C:\USERS\DTD811\DESKTOP\OPENGL_5\OPENGL_5\DEBUG\CSOLIDCUBE.OBJ
C:\USERS\DTD811\DESKTOP\OPENGL_5\OPENGL_5\DEBUG\CSOLIDSPHERE.OBJ
C:\USERS\DTD811\DESKTOP\OPENGL_5\OPENGL_5\DEBUG\CSOLIDSPHEREMT.OBJ
C:\USERS\DTD811\DESKTOP\OPENGL_5\OPENGL_5\DEBUG\CWIRECUBE.OBJ
C:\USERS\DTD811\DESKTOP\OPENGL_5\OPENGL_5\DEBUG\CWIRESPHERE.OBJ
C:\USERS\DTD811\DESKTOP\OPENGL_5\OPENGL_5\DEBUG\TIMER.OBJ
C:\USERS\DTD811\DESKTOP\OPENGL_5\OPENGL_5\DEBUG\EXAMPLE5.OBJ
C:\USERS\DTD811\DESKTOP\OPENGL_5\OPENGL_5\DEBUG\INITSHADER.OBJ
C:\USERS\DTD811\DESKTOP\OPENGL_5\OPENGL_5\DEBUG\PNG_LOADER.OBJ
C:\USERS\DTD811\DESKTOP\OPENGL_5\OPENGL_5\LIBPNG\DEBUG\LIBPNG16.LIB
C:\USERS\DTD811\DESKTOP\OPENGL_5\OPENGL_5\LIBPNG\DEBUG\ZLIB.LIB
C:\USERS\DTD811\DESKTOP\OPENGL_5\OPENGL_5\SOIL\DEBUG\SOIL.LIB
C:\WINDOWS\SYSTEM32\TZRES.DLL
C:\VISUAL STUDIO 11.0\VC\LIB\MSVCRTD.LIB
C:\VISUAL STUDIO 11.0\VC\LIB\OLDNAMES.LIB
C:\VISUAL STUDIO 11.0\VC\LIB\MSVCPRTD.LIB
C:\PROGRAM FILES (X86)\WINDOWS KITS\8.0\LIB\WIN8\UM\X86\GLU32.LIB
C:\PROGRAM FILES (X86)\WINDOWS KITS\8.0\LIB\WIN8\UM\X86\OPENGL32.LIB
C:\PROGRAM FILES (X86)\WINDOWS KITS\8.0\LIB\WIN8\UM\X86\WINMM.LIB
