^C:\USERS\HOME\DOCUMENTS\OPENGL_FINAL\OPENGL_5\LIBPNG\DEBUG\LIBPNG16.LIB|C:\USERS\HOME\DOCUMENTS\OPENGL_FINAL\OPENGL_5\LIBPNG\DEBUG\ZLIB.LIB|C:\USERS\HOME\DOCUMENTS\OPENGL_FINAL\OPENGL_5\RELEASE\CAMERA.OBJ|C:\USERS\HOME\DOCUMENTS\OPENGL_FINAL\OPENGL_5\RELEASE\CCHECKER.OBJ|C:\USERS\HOME\DOCUMENTS\OPENGL_FINAL\OPENGL_5\RELEASE\CCONTROLLER.OBJ|C:\USERS\HOME\DOCUMENTS\OPENGL_FINAL\OPENGL_5\RELEASE\CLINESEGMENT.OBJ|C:\USERS\HOME\DOCUMENTS\OPENGL_FINAL\OPENGL_5\RELEASE\COMMON.OBJ|C:\USERS\HOME\DOCUMENTS\OPENGL_FINAL\OPENGL_5\RELEASE\CQUAD.OBJ|C:\USERS\HOME\DOCUMENTS\OPENGL_FINAL\OPENGL_5\RELEASE\CQUADMT.OBJ|C:\USERS\HOME\DOCUMENTS\OPENGL_FINAL\OPENGL_5\RELEASE\CSHAPE.OBJ|C:\USERS\HOME\DOCUMENTS\OPENGL_FINAL\OPENGL_5\RELEASE\CSHAPEMT.OBJ|C:\USERS\HOME\DOCUMENTS\OPENGL_FINAL\OPENGL_5\RELEASE\CSOLIDCUBE.OBJ|C:\USERS\HOME\DOCUMENTS\OPENGL_FINAL\OPENGL_5\RELEASE\CSOLIDPRISM.OBJ|C:\USERS\HOME\DOCUMENTS\OPENGL_FINAL\OPENGL_5\RELEASE\CSOLIDSPHERE.OBJ|C:\USERS\HOME\DOCUMENTS\OPENGL_FINAL\OPENGL_5\RELEASE\CSOLIDSPHEREMT.OBJ|C:\USERS\HOME\DOCUMENTS\OPENGL_FINAL\OPENGL_5\RELEASE\CWALL.OBJ|C:\USERS\HOME\DOCUMENTS\OPENGL_FINAL\OPENGL_5\RELEASE\CWIRECUBE.OBJ|C:\USERS\HOME\DOCUMENTS\OPENGL_FINAL\OPENGL_5\RELEASE\CWIRESPHERE.OBJ|C:\USERS\HOME\DOCUMENTS\OPENGL_FINAL\OPENGL_5\RELEASE\INITSHADER.OBJ|C:\USERS\HOME\DOCUMENTS\OPENGL_FINAL\OPENGL_5\RELEASE\MAIN.OBJ|C:\USERS\HOME\DOCUMENTS\OPENGL_FINAL\OPENGL_5\RELEASE\PNG_LOADER.OBJ|C:\USERS\HOME\DOCUMENTS\OPENGL_FINAL\OPENGL_5\RELEASE\TIMER.OBJ|C:\USERS\HOME\DOCUMENTS\OPENGL_FINAL\OPENGL_5\SOIL\DEBUG\SOIL.LIB
C:\USERS\HOME\DOCUMENTS\OPENGL_FINAL\RELEASE\OPENGL_5.EXE
C:\USERS\HOME\DOCUMENTS\OPENGL_FINAL\RELEASE\OPENGL_5.PDB
