^C:\USERS\HOME\DOWNLOADS\OPENGL_5QQ\OPENGL_5\DEBUG\CAMERA.OBJ|C:\USERS\HOME\DOWNLOADS\OPENGL_5QQ\OPENGL_5\DEBUG\CCHECKER.OBJ|C:\USERS\HOME\DOWNLOADS\OPENGL_5QQ\OPENGL_5\DEBUG\CCONTROLLER.OBJ|C:\USERS\HOME\DOWNLOADS\OPENGL_5QQ\OPENGL_5\DEBUG\CLINESEGMENT.OBJ|C:\USERS\HOME\DOWNLOADS\OPENGL_5QQ\OPENGL_5\DEBUG\COMMON.OBJ|C:\USERS\HOME\DOWNLOADS\OPENGL_5QQ\OPENGL_5\DEBUG\CQUAD.OBJ|C:\USERS\HOME\DOWNLOADS\OPENGL_5QQ\OPENGL_5\DEBUG\CQUADMT.OBJ|C:\USERS\HOME\DOWNLOADS\OPENGL_5QQ\OPENGL_5\DEBUG\CSHAPE.OBJ|C:\USERS\HOME\DOWNLOADS\OPENGL_5QQ\OPENGL_5\DEBUG\CSHAPEMT.OBJ|C:\USERS\HOME\DOWNLOADS\OPENGL_5QQ\OPENGL_5\DEBUG\CSOLIDCUBE.OBJ|C:\USERS\HOME\DOWNLOADS\OPENGL_5QQ\OPENGL_5\DEBUG\CSOLIDSPHERE.OBJ|C:\USERS\HOME\DOWNLOADS\OPENGL_5QQ\OPENGL_5\DEBUG\CSOLIDSPHEREMT.OBJ|C:\USERS\HOME\DOWNLOADS\OPENGL_5QQ\OPENGL_5\DEBUG\CWIRECUBE.OBJ|C:\USERS\HOME\DOWNLOADS\OPENGL_5QQ\OPENGL_5\DEBUG\CWIRESPHERE.OBJ|C:\USERS\HOME\DOWNLOADS\OPENGL_5QQ\OPENGL_5\DEBUG\EXAMPLE5.OBJ|C:\USERS\HOME\DOWNLOADS\OPENGL_5QQ\OPENGL_5\DEBUG\INITSHADER.OBJ|C:\USERS\HOME\DOWNLOADS\OPENGL_5QQ\OPENGL_5\DEBUG\PNG_LOADER.OBJ|C:\USERS\HOME\DOWNLOADS\OPENGL_5QQ\OPENGL_5\DEBUG\TIMER.OBJ|C:\USERS\HOME\DOWNLOADS\OPENGL_5QQ\OPENGL_5\LIBPNG\DEBUG\LIBPNG16.LIB|C:\USERS\HOME\DOWNLOADS\OPENGL_5QQ\OPENGL_5\LIBPNG\DEBUG\ZLIB.LIB|C:\USERS\HOME\DOWNLOADS\OPENGL_5QQ\OPENGL_5\SOIL\DEBUG\SOIL.LIB
C:\WINDOWS\GLOBALIZATION\SORTING\SORTDEFAULT.NLS
C:\PROGRAM FILES (X86)\MICROSOFT VISUAL STUDIO 12.0\VC\LIB\FREEGLUT.LIB
C:\PROGRAM FILES (X86)\MICROSOFT VISUAL STUDIO 12.0\VC\LIB\GLEW32.LIB
C:\PROGRAM FILES (X86)\WINDOWS KITS\8.1\LIB\WINV6.3\UM\X86\KERNEL32.LIB
C:\PROGRAM FILES (X86)\WINDOWS KITS\8.1\LIB\WINV6.3\UM\X86\USER32.LIB
C:\PROGRAM FILES (X86)\WINDOWS KITS\8.1\LIB\WINV6.3\UM\X86\GDI32.LIB
C:\PROGRAM FILES (X86)\WINDOWS KITS\8.1\LIB\WINV6.3\UM\X86\WINSPOOL.LIB
C:\PROGRAM FILES (X86)\WINDOWS KITS\8.1\LIB\WINV6.3\UM\X86\COMDLG32.LIB
C:\PROGRAM FILES (X86)\WINDOWS KITS\8.1\LIB\WINV6.3\UM\X86\ADVAPI32.LIB
C:\PROGRAM FILES (X86)\WINDOWS KITS\8.1\LIB\WINV6.3\UM\X86\SHELL32.LIB
C:\PROGRAM FILES (X86)\WINDOWS KITS\8.1\LIB\WINV6.3\UM\X86\OLE32.LIB
C:\PROGRAM FILES (X86)\WINDOWS KITS\8.1\LIB\WINV6.3\UM\X86\OLEAUT32.LIB
C:\PROGRAM FILES (X86)\WINDOWS KITS\8.1\LIB\WINV6.3\UM\X86\UUID.LIB
C:\PROGRAM FILES (X86)\WINDOWS KITS\8.1\LIB\WINV6.3\UM\X86\ODBC32.LIB
C:\PROGRAM FILES (X86)\WINDOWS KITS\8.1\LIB\WINV6.3\UM\X86\ODBCCP32.LIB
C:\USERS\HOME\DOWNLOADS\OPENGL_5QQ\OPENGL_5\DEBUG\CAMERA.OBJ
C:\USERS\HOME\DOWNLOADS\OPENGL_5QQ\OPENGL_5\DEBUG\CCONTROLLER.OBJ
C:\USERS\HOME\DOWNLOADS\OPENGL_5QQ\OPENGL_5\DEBUG\CCHECKER.OBJ
C:\USERS\HOME\DOWNLOADS\OPENGL_5QQ\OPENGL_5\DEBUG\CLINESEGMENT.OBJ
C:\USERS\HOME\DOWNLOADS\OPENGL_5QQ\OPENGL_5\DEBUG\COMMON.OBJ
C:\USERS\HOME\DOWNLOADS\OPENGL_5QQ\OPENGL_5\DEBUG\CQUAD.OBJ
C:\USERS\HOME\DOWNLOADS\OPENGL_5QQ\OPENGL_5\DEBUG\CQUADMT.OBJ
C:\USERS\HOME\DOWNLOADS\OPENGL_5QQ\OPENGL_5\DEBUG\CSHAPE.OBJ
C:\USERS\HOME\DOWNLOADS\OPENGL_5QQ\OPENGL_5\DEBUG\CSHAPEMT.OBJ
C:\USERS\HOME\DOWNLOADS\OPENGL_5QQ\OPENGL_5\DEBUG\CSOLIDCUBE.OBJ
C:\USERS\HOME\DOWNLOADS\OPENGL_5QQ\OPENGL_5\DEBUG\CSOLIDSPHERE.OBJ
C:\USERS\HOME\DOWNLOADS\OPENGL_5QQ\OPENGL_5\DEBUG\CSOLIDSPHEREMT.OBJ
C:\USERS\HOME\DOWNLOADS\OPENGL_5QQ\OPENGL_5\DEBUG\CWIRECUBE.OBJ
C:\USERS\HOME\DOWNLOADS\OPENGL_5QQ\OPENGL_5\DEBUG\CWIRESPHERE.OBJ
C:\USERS\HOME\DOWNLOADS\OPENGL_5QQ\OPENGL_5\DEBUG\TIMER.OBJ
C:\USERS\HOME\DOWNLOADS\OPENGL_5QQ\OPENGL_5\DEBUG\EXAMPLE5.OBJ
C:\USERS\HOME\DOWNLOADS\OPENGL_5QQ\OPENGL_5\DEBUG\INITSHADER.OBJ
C:\USERS\HOME\DOWNLOADS\OPENGL_5QQ\OPENGL_5\DEBUG\PNG_LOADER.OBJ
C:\USERS\HOME\DOWNLOADS\OPENGL_5QQ\OPENGL_5\LIBPNG\DEBUG\LIBPNG16.LIB
C:\USERS\HOME\DOWNLOADS\OPENGL_5QQ\OPENGL_5\LIBPNG\DEBUG\ZLIB.LIB
C:\USERS\HOME\DOWNLOADS\OPENGL_5QQ\OPENGL_5\SOIL\DEBUG\SOIL.LIB
C:\WINDOWS\SYSTEM32\TZRES.DLL
C:\PROGRAM FILES (X86)\MICROSOFT VISUAL STUDIO 12.0\VC\LIB\MSVCPRTD.LIB
C:\PROGRAM FILES (X86)\WINDOWS KITS\8.1\LIB\WINV6.3\UM\X86\GLU32.LIB
C:\PROGRAM FILES (X86)\WINDOWS KITS\8.1\LIB\WINV6.3\UM\X86\OPENGL32.LIB
C:\PROGRAM FILES (X86)\WINDOWS KITS\8.1\LIB\WINV6.3\UM\X86\WINMM.LIB
C:\PROGRAM FILES (X86)\MICROSOFT VISUAL STUDIO 12.0\VC\LIB\MSVCRTD.LIB
C:\PROGRAM FILES (X86)\MICROSOFT VISUAL STUDIO 12.0\VC\LIB\OLDNAMES.LIB
^C:\USERS\HOME\DOCUMENTS\OPENGL_FINAL\OPENGL_5\DEBUG\CAMERA.OBJ|C:\USERS\HOME\DOCUMENTS\OPENGL_FINAL\OPENGL_5\DEBUG\CCHECKER.OBJ|C:\USERS\HOME\DOCUMENTS\OPENGL_FINAL\OPENGL_5\DEBUG\CCONTROLLER.OBJ|C:\USERS\HOME\DOCUMENTS\OPENGL_FINAL\OPENGL_5\DEBUG\CLINESEGMENT.OBJ|C:\USERS\HOME\DOCUMENTS\OPENGL_FINAL\OPENGL_5\DEBUG\COMMON.OBJ|C:\USERS\HOME\DOCUMENTS\OPENGL_FINAL\OPENGL_5\DEBUG\CQUAD.OBJ|C:\USERS\HOME\DOCUMENTS\OPENGL_FINAL\OPENGL_5\DEBUG\CQUADMT.OBJ|C:\USERS\HOME\DOCUMENTS\OPENGL_FINAL\OPENGL_5\DEBUG\CSHAPE.OBJ|C:\USERS\HOME\DOCUMENTS\OPENGL_FINAL\OPENGL_5\DEBUG\CSHAPEMT.OBJ|C:\USERS\HOME\DOCUMENTS\OPENGL_FINAL\OPENGL_5\DEBUG\CSOLIDCUBE.OBJ|C:\USERS\HOME\DOCUMENTS\OPENGL_FINAL\OPENGL_5\DEBUG\CSOLIDSPHERE.OBJ|C:\USERS\HOME\DOCUMENTS\OPENGL_FINAL\OPENGL_5\DEBUG\CSOLIDSPHEREMT.OBJ|C:\USERS\HOME\DOCUMENTS\OPENGL_FINAL\OPENGL_5\DEBUG\CWALL.OBJ|C:\USERS\HOME\DOCUMENTS\OPENGL_FINAL\OPENGL_5\DEBUG\CWIRECUBE.OBJ|C:\USERS\HOME\DOCUMENTS\OPENGL_FINAL\OPENGL_5\DEBUG\CWIRESPHERE.OBJ|C:\USERS\HOME\DOCUMENTS\OPENGL_FINAL\OPENGL_5\DEBUG\INITSHADER.OBJ|C:\USERS\HOME\DOCUMENTS\OPENGL_FINAL\OPENGL_5\DEBUG\MAIN.OBJ|C:\USERS\HOME\DOCUMENTS\OPENGL_FINAL\OPENGL_5\DEBUG\PNG_LOADER.OBJ|C:\USERS\HOME\DOCUMENTS\OPENGL_FINAL\OPENGL_5\DEBUG\TIMER.OBJ|C:\USERS\HOME\DOCUMENTS\OPENGL_FINAL\OPENGL_5\LIBPNG\DEBUG\LIBPNG16.LIB|C:\USERS\HOME\DOCUMENTS\OPENGL_FINAL\OPENGL_5\LIBPNG\DEBUG\ZLIB.LIB|C:\USERS\HOME\DOCUMENTS\OPENGL_FINAL\OPENGL_5\SOIL\DEBUG\SOIL.LIB
C:\WINDOWS\GLOBALIZATION\SORTING\SORTDEFAULT.NLS
C:\PROGRAM FILES (X86)\MICROSOFT VISUAL STUDIO 12.0\VC\LIB\FREEGLUT.LIB
C:\PROGRAM FILES (X86)\MICROSOFT VISUAL STUDIO 12.0\VC\LIB\GLEW32.LIB
C:\PROGRAM FILES (X86)\WINDOWS KITS\8.1\LIB\WINV6.3\UM\X86\KERNEL32.LIB
C:\PROGRAM FILES (X86)\WINDOWS KITS\8.1\LIB\WINV6.3\UM\X86\USER32.LIB
C:\PROGRAM FILES (X86)\WINDOWS KITS\8.1\LIB\WINV6.3\UM\X86\GDI32.LIB
C:\PROGRAM FILES (X86)\WINDOWS KITS\8.1\LIB\WINV6.3\UM\X86\WINSPOOL.LIB
C:\PROGRAM FILES (X86)\WINDOWS KITS\8.1\LIB\WINV6.3\UM\X86\COMDLG32.LIB
C:\PROGRAM FILES (X86)\WINDOWS KITS\8.1\LIB\WINV6.3\UM\X86\ADVAPI32.LIB
C:\PROGRAM FILES (X86)\WINDOWS KITS\8.1\LIB\WINV6.3\UM\X86\SHELL32.LIB
C:\PROGRAM FILES (X86)\WINDOWS KITS\8.1\LIB\WINV6.3\UM\X86\OLE32.LIB
C:\PROGRAM FILES (X86)\WINDOWS KITS\8.1\LIB\WINV6.3\UM\X86\OLEAUT32.LIB
C:\PROGRAM FILES (X86)\WINDOWS KITS\8.1\LIB\WINV6.3\UM\X86\UUID.LIB
C:\PROGRAM FILES (X86)\WINDOWS KITS\8.1\LIB\WINV6.3\UM\X86\ODBC32.LIB
C:\PROGRAM FILES (X86)\WINDOWS KITS\8.1\LIB\WINV6.3\UM\X86\ODBCCP32.LIB
C:\USERS\HOME\DOCUMENTS\OPENGL_FINAL\OPENGL_5\DEBUG\CAMERA.OBJ
C:\USERS\HOME\DOCUMENTS\OPENGL_FINAL\OPENGL_5\DEBUG\CCONTROLLER.OBJ
C:\USERS\HOME\DOCUMENTS\OPENGL_FINAL\OPENGL_5\DEBUG\CCHECKER.OBJ
C:\USERS\HOME\DOCUMENTS\OPENGL_FINAL\OPENGL_5\DEBUG\CLINESEGMENT.OBJ
C:\USERS\HOME\DOCUMENTS\OPENGL_FINAL\OPENGL_5\DEBUG\COMMON.OBJ
C:\USERS\HOME\DOCUMENTS\OPENGL_FINAL\OPENGL_5\DEBUG\CQUAD.OBJ
C:\USERS\HOME\DOCUMENTS\OPENGL_FINAL\OPENGL_5\DEBUG\CQUADMT.OBJ
C:\USERS\HOME\DOCUMENTS\OPENGL_FINAL\OPENGL_5\DEBUG\CSHAPE.OBJ
C:\USERS\HOME\DOCUMENTS\OPENGL_FINAL\OPENGL_5\DEBUG\CSHAPEMT.OBJ
C:\USERS\HOME\DOCUMENTS\OPENGL_FINAL\OPENGL_5\DEBUG\CSOLIDCUBE.OBJ
C:\USERS\HOME\DOCUMENTS\OPENGL_FINAL\OPENGL_5\DEBUG\CSOLIDSPHERE.OBJ
C:\USERS\HOME\DOCUMENTS\OPENGL_FINAL\OPENGL_5\DEBUG\CSOLIDSPHEREMT.OBJ
C:\USERS\HOME\DOCUMENTS\OPENGL_FINAL\OPENGL_5\DEBUG\CWIRECUBE.OBJ
C:\USERS\HOME\DOCUMENTS\OPENGL_FINAL\OPENGL_5\DEBUG\CWIRESPHERE.OBJ
C:\USERS\HOME\DOCUMENTS\OPENGL_FINAL\OPENGL_5\DEBUG\TIMER.OBJ
C:\USERS\HOME\DOCUMENTS\OPENGL_FINAL\OPENGL_5\DEBUG\CWALL.OBJ
C:\USERS\HOME\DOCUMENTS\OPENGL_FINAL\OPENGL_5\DEBUG\MAIN.OBJ
C:\USERS\HOME\DOCUMENTS\OPENGL_FINAL\OPENGL_5\DEBUG\INITSHADER.OBJ
C:\USERS\HOME\DOCUMENTS\OPENGL_FINAL\OPENGL_5\DEBUG\PNG_LOADER.OBJ
C:\USERS\HOME\DOCUMENTS\OPENGL_FINAL\OPENGL_5\LIBPNG\DEBUG\LIBPNG16.LIB
C:\USERS\HOME\DOCUMENTS\OPENGL_FINAL\OPENGL_5\LIBPNG\DEBUG\ZLIB.LIB
C:\USERS\HOME\DOCUMENTS\OPENGL_FINAL\OPENGL_5\SOIL\DEBUG\SOIL.LIB
C:\WINDOWS\SYSTEM32\TZRES.DLL
C:\PROGRAM FILES (X86)\MICROSOFT VISUAL STUDIO 12.0\VC\BIN\1033\LINKUI.DLL
C:\PROGRAM FILES (X86)\MICROSOFT VISUAL STUDIO 12.0\VC\LIB\MSVCPRTD.LIB
C:\PROGRAM FILES (X86)\WINDOWS KITS\8.1\LIB\WINV6.3\UM\X86\GLU32.LIB
C:\PROGRAM FILES (X86)\WINDOWS KITS\8.1\LIB\WINV6.3\UM\X86\OPENGL32.LIB
C:\PROGRAM FILES (X86)\WINDOWS KITS\8.1\LIB\WINV6.3\UM\X86\WINMM.LIB
C:\PROGRAM FILES (X86)\MICROSOFT VISUAL STUDIO 12.0\VC\LIB\MSVCRTD.LIB
C:\PROGRAM FILES (X86)\MICROSOFT VISUAL STUDIO 12.0\VC\LIB\OLDNAMES.LIB
C:\PROGRAM FILES (X86)\WINDOWS KITS\8.1\BIN\X86\RC.EXE
C:\PROGRAM FILES (X86)\MICROSOFT VISUAL STUDIO 12.0\VC\BIN\CVTRES.EXE
C:\WINDOWS\SYSTEM32\RSAENH.DLL
